com/tw/travelportal/test/JunitLifeCycleTest.class
com/tw/travelportal/test/TotalPriceCalculatorIntgTest.class
com/tw/travelportal/test/DateIncrementUnitTest.class
com/tw/travelportal/test/DateConverterUnitTest.class
com/tw/travelportal/test/BasePriceLoaderUnitTest.class
com/tw/travelportal/test/PriceCalculatorUnitTest.class
com/tw/travelportal/test/DateComparisionUnitTest.class
com/tw/travelportal/test/SearchFlightDetailUnitTest.class
